Use ecocomDP Data • ecocomDP
…
      Source: vignettes/use.Rmd
      use.Rmd

A set of “use” functions help you search, read, manipulate, plot, and save ecocomDP data.

library(ecocomDP)

Search

Find data of interest by searching on one or more query parameters.

All available datasets are returned with an empty call to search_data():

search_data()
#> # A tibble: 82 x 11
#>   source id     title  description abstract  years sampling_interv~ sites url   
#>   <chr>  <chr>  <chr>  <chr>       <chr>     <chr> <chr>            <chr> <chr> 
#> 1 EDI    edi.3~ Fores~ <NA>        "This da~ 8     0.01             <NA>  https~
#> 2 EDI    edi.2~ Zoopl~ <NA>        "This da~ 9     0.19             <NA>  https~
#> 3 EDI    edi.3~ Long ~ <NA>        "This da~ 21    0.02             <NA>  https~
#> 4 EDI    edi.3~ Dune ~ <NA>        "This da~ 7     0.15             <NA>  https~
#> # ... with 78 more rows, and 2 more variables: source_id <chr>,
#> #   source_id_url <chr>

The “taxa” parameter enables searching on any taxonomic rank value. Find datasets about insects:

search_data(taxa = "Insecta")
#> # A tibble: 13 x 11
#>   source id     title  description abstract  years sampling_interv~ sites url   
#>   <chr>  <chr>  <chr>  <chr>       <chr>     <chr> <chr>            <chr> <chr> 
#> 1 EDI    edi.2~ Moss ~ <NA>        "This da~ 23    821.61           <NA>  https~
#> 2 EDI    edi.2~ Bonan~ <NA>        "This da~ 38    0.41             <NA>  https~
#> 3 EDI    edi.3~ Aphid~ <NA>        "This da~ 4     0                <NA>  https~
#> 4 EDI    edi.3~ CGR02~ <NA>        "This da~ 30    0.06             <NA>  https~
#> # ... with 9 more rows, and 2 more variables: source_id <chr>,
#> #   source_id_url <chr>

The “num_years” parameter lets you find datasets within a range of sampling years. Datasets with 20 to 40 years of sampling:

search_data(num_years = c(20, 40))
#> # A tibble: 22 x 11
#>   source id     title  description abstract  years sampling_interv~ sites url   
#>   <chr>  <chr>  <chr>  <lgl>       <chr>     <int>            <dbl> <chr> <chr> 
#> 1 EDI    edi.3~ Long ~ NA          "This da~    21             0.02 <NA>  https~
#> 2 EDI    edi.2~ Moss ~ NA          "This da~    23           822.   <NA>  https~
#> 3 EDI    edi.3~ Annua~ NA          "This da~    20             0    <NA>  https~
#> 4 EDI    edi.3~ SGS-L~ NA          "This da~    26             0.05 <NA>  https~
#> # ... with 18 more rows, and 2 more variables: source_id <chr>,
#> #   source_id_url <chr>

The “area” parameter facilitates searches by geographic regions. Datasets originating from the Northeast United States:

search_data(area = c(47, -70, 38, -90))
#> # A tibble: 55 x 11
#>   source id     title  description abstract  years sampling_interv~ sites url   
#>   <chr>  <chr>  <chr>  <chr>       <chr>     <chr> <chr>            <chr> <chr> 
#> 1 EDI    edi.3~ Fores~ <NA>        "This da~ 8     0.01             <NA>  https~
#> 2 EDI    edi.3~ Long ~ <NA>        "This da~ 21    0.02             <NA>  https~
#> 3 EDI    edi.3~ Dune ~ <NA>        "This da~ 7     0.15             <NA>  https~
#> 4 EDI    edi.3~ SGS-L~ <NA>        "This da~ 7     0                <NA>  https~
#> # ... with 51 more rows, and 2 more variables: source_id <chr>,
#> #   source_id_url <chr>
…
Manipulate

Working with a “flattened” dataset simplifies common tasks (select, filter, arrange, group, summarize). A “flat” version is where all tables have been joined and spread wide except for the core observation variables, which remain in long form.

flat <- flatten_data(dataset_1)
flat
#> # A tibble: 2,931 × 46
#>   observation_id event_id datetime   variable_name value unit   trap.type
#>   <chr>          <chr>    <date>     <chr>         <dbl> <chr>  <chr>    
#> 1 1              1        2003-06-01 abundance         2 number bait     
#> 2 2              1        2003-06-01 abundance         2 number bait     
#> 3 3              1        2003-06-01 abundance         1 number bait     
#> 4 4              1        2003-06-01 abundance         2 number bait     
#> # … with 2,927 more rows, and 39 more variables: trap.num <chr>,
#> #   moose.cage <chr>, location_id <chr>, location_name <chr>, block <chr>,
#> #   plot <chr>, latitude <dbl>, longitude <dbl>, elevation <dbl>,
#> #   treatment <chr>, taxon_id <chr>, taxon_rank <chr>, taxon_name <chr>,
#> #   authority_system <chr>, authority_taxon_id <chr>, behavior <chr>,
#> #   biogeographic.affinity <chr>, colony.size <chr>, feeding.preference <chr>,
#> #   hl <dbl>, unit_hl <chr>, nest.substrate <chr>, primary.habitat <chr>, …
…
