Create the observation table — create_observation • ecocomDP
…
observation <- create_observation(
  L0_flat = flat, 
  observation_id = "observation_id", 
  event_id = "event_id", 
  package_id = "package_id",
  location_id = "location_id", 
  datetime = "datetime", 
  taxon_id = "taxon_id", 
  variable_name = "variable_name",
  value = "value",
  unit = "unit")

observation
#> # A tibble: 2,931 x 9
#>    observation_id event_id package_id location_id datetime   taxon_id
#>    <chr>          <chr>    <chr>      <chr>       <date>     <chr>   
#>  1 1              1        edi.193.5  4           2003-06-01 1       
#>  2 2              1        edi.193.5  4           2003-06-01 2       
#>  3 3              1        edi.193.5  4           2003-06-01 53      
#>  4 4              1        edi.193.5  4           2003-06-01 2       
#>  5 5              1        edi.193.5  4           2003-06-01 2       
#>  6 6              1        edi.193.5  4           2003-06-01 8       
#>  7 7              1        edi.193.5  4           2003-06-01 24      
#>  8 8              1        edi.193.5  4           2003-06-01 42      
#>  9 9              1        edi.193.5  4           2003-06-01 53      
#> 10 10             1        edi.193.5  4           2003-06-01 1       
#> # ... with 2,921 more rows, and 3 more variables: variable_name <chr>,
#> #   value <dbl>, unit <chr>
…
